,monoisotopic_mass,M_H,M_2H,labeling,labeling_pattern
63,1833.8639994361097,1834.8718244683096,917.9398247502548,"[('C', 13), ('N', 15)]",+++++------
111,1833.8639994361097,1834.8718244683096,917.9398247502548,"[('C', 13), ('N', 15)]",++++--+----
183,1833.8639994361097,1834.8718244683096,917.9398247502548,"[('C', 13), ('N', 15)]",+++-+--+---
231,1833.8639994361097,1834.8718244683096,917.9398247502548,"[('C', 13), ('N', 15)]",+++---++---
287,1833.8639994361095,1834.8718244683093,917.9398247502547,"[('C', 13), ('N', 15)]",++-+++-----
315,1833.8639994361095,1834.8718244683093,917.9398247502547,"[('C', 13), ('N', 15)]",++-++---+--
335,1833.8639994361095,1834.8718244683093,917.9398247502547,"[('C', 13), ('N', 15)]",++-+-++----
363,1833.8639994361095,1834.8718244683093,917.9398247502547,"[('C', 13), ('N', 15)]",++-+--+-+--
407,1833.8639994361097,1834.8718244683096,917.9398247502548,"[('C', 13), ('N', 15)]",++--++-+---
435,1833.8639994361097,1834.8718244683096,917.9398247502548,"[('C', 13), ('N', 15)]",++--+--++--
455,1833.8639994361097,1834.8718244683096,917.9398247502548,"[('C', 13), ('N', 15)]",++---+++---
483,1833.8639994361097,1834.8718244683096,917.9398247502548,"[('C', 13), ('N', 15)]",++----+++--
573,1833.8639994361097,1834.8718244683096,917.9398247502548,"[('C', 13), ('N', 15)]",+-+++----+-
621,1833.8639994361097,1834.8718244683096,917.9398247502548,"[('C', 13), ('N', 15)]",+-++--+--+-
693,1833.8639994361097,1834.8718244683096,917.9398247502548,"[('C', 13), ('N', 15)]",+-+-+--+-+-
741,1833.8639994361097,1834.8718244683096,917.9398247502548,"[('C', 13), ('N', 15)]",+-+---++-+-
797,1833.8639994361095,1834.8718244683093,917.9398247502547,"[('C', 13), ('N', 15)]",+--+++---+-
825,1833.8639994361095,1834.8718244683093,917.9398247502547,"[('C', 13), ('N', 15)]",+--++---++-
845,1833.8639994361095,1834.8718244683093,917.9398247502547,"[('C', 13), ('N', 15)]",+--+-++--+-
873,1833.8639994361095,1834.8718244683093,917.9398247502547,"[('C', 13), ('N', 15)]",+--+--+-++-
917,1833.8639994361097,1834.8718244683096,917.9398247502548,"[('C', 13), ('N', 15)]",+---++-+-+-
945,1833.8639994361097,1834.8718244683096,917.9398247502548,"[('C', 13), ('N', 15)]",+---+--+++-
965,1833.8639994361097,1834.8718244683096,917.9398247502548,"[('C', 13), ('N', 15)]",+----+++-+-
993,1833.8639994361097,1834.8718244683096,917.9398247502548,"[('C', 13), ('N', 15)]",+-----++++-
