FPLC Peak,m/z,peak_label,z,mass,intensity,calc_mass,delta,remarks
A,871.3804128897033,Tri all light,1,870.3726,10665.0,870.370588287888,-2.3113282308298753,
A,911.4754854481831,Tri all heavy,1,910.4677,2335644.0,910.4668620470725,-0.9203552182781958,
B,942.4148121616024,Tetra all light,1,941.407,15976.0,941.4077020730866,0.7457694312889647,
B,986.5194570650525,Tetra all heavy,1,985.5116,2392816.0,985.5110752319425,-0.5324831660498197,
C,862.3718268146129,Tri-Tri all light,2,1722.728,8246.0,1722.730611891726,1.5161347386467203,
C,902.4704977146199,Tri-Tri all heavy,2,1802.9253,1701363.0,1802.9231594100959,-1.1872884837364115,
D,897.8930306506463,Tetra-Tri all light,2,1793.7704,5518.0,1793.7677256769248,-1.490897086085224,
D,939.9917256915348,Tetra-Tri all heavy,2,1877.9678,1159889.0,1877.9673725949658,-0.22758916918649014,
E,897.8901808488479,Tri-Tetra all light,2,1793.7647,10026.0,1793.7677256769248,1.6867718609964033,
E,939.9916277030353,Tri-Tetra all heavy,2,1877.9676,1826271.0,1877.9673725949658,-0.12109104633921358,
F,933.4070105722469,Tetra-Tetra all light,2,1864.7984,22903.0,1864.8048394621235,3.453156055428282,
F,977.5122879718574,Tetra-Tetra all heavy,2,1953.0089,3124942.0,1953.0115857798357,1.3751991310532685,
