,GlcN,Ac,GlcN_Red,Ac,Lac,Ala,Glu,N_ter*DAP,C_ter*DAP,Glu,Ala,Lac,GlcN_Red,Ac,GlcN,Ac,label
1,-,-,-,-,-,-,-,-,-,-,-,-,-,-,-,-,"['1','----------------',(('C',13),('N',15))]"
2,+,-,-,-,-,-,-,-,-,-,-,-,-,-,-,-,"['2','+---------------',(('C',13),('N',15))]"
3,-,-,-,-,-,+,+,+,-,-,-,-,-,-,-,-,"['3','-----+++--------',(('C',13),('N',15))]"
4,+,-,-,-,-,+,+,+,-,-,-,-,-,-,-,-,"['4','+----+++--------',(('C',13),('N',15))]"
5,-,-,+,+,+,+,+,+,-,-,-,-,-,-,-,-,"['5','--++++++--------',(('C',13),('N',15))]"
6,+,+,+,+,+,+,+,+,-,-,-,-,-,-,-,-,"['6','++++++++--------',(('C',13),('N',15))]"
7,+,+,+,+,+,+,+,+,-,-,-,-,-,-,+,-,"['7','++++++++------+-',(('C',13),('N',15))]"
8,+,+,+,+,+,+,+,+,+,+,+,-,-,-,-,-,"['8','+++++++++++-----',(('C',13),('N',15))]"
10,+,+,+,+,+,+,+,+,+,+,+,+,+,+,-,-,"['10','++++++++++++++--',(('C',13),('N',15))]"
11,+,+,+,+,+,+,+,+,+,+,+,+,+,+,+,+,"['11','++++++++++++++++',(('C',13),('N',15))]"
